Getting Started with superNetballR • superNetballR
…
Tidying Match and Player Statistics

The full match data can be tidied into match and player statistics, grouped by period.

Tidying match statistics using the tidyMatch function:

tidied_match <- tidyMatch(round5_game3)
tidied_match
#> # A tibble: 256 x 9
#>    period squadId squadName    squadNickname squadCode stat    value round
#>     <int>   <int> <chr>        <chr>         <chr>     <chr>   <int> <int>
#>  1      1    8117 Sunshine Co… Lightning     SCL       reboun…     0     5
#>  2      2    8117 Sunshine Co… Lightning     SCL       reboun…     2     5
#>  3      3    8117 Sunshine Co… Lightning     SCL       reboun…     5     5
#>  4      4    8117 Sunshine Co… Lightning     SCL       reboun…     1     5
#>  5      1    8119 Magpies Net… Magpies       MNC       reboun…     2     5
#>  6      2    8119 Magpies Net… Magpies       MNC       reboun…     1     5
#>  7      3    8119 Magpies Net… Magpies       MNC       reboun…     1     5
#>  8      4    8119 Magpies Net… Magpies       MNC       reboun…     0     5
#>  9      1    8117 Sunshine Co… Lightning     SCL       goalsF…     9     5
#> 10      2    8117 Sunshine Co… Lightning     SCL       goalsF…    10     5
#> # ... with 246 more rows, and 1 more variable: game <int>

Tidying player statistics using the tidyPlayers function:

tidied_players <- tidyPlayers(round5_game3)
tidied_players
#> # A tibble: 2,640 x 9
#>    playerId period shortDisplayName firstname surname stat     value round
#>       <int>  <int> <chr>            <chr>     <chr>   <chr>    <chr> <int>
#>  1    80010      1 Mentor, G        Geva      Mentor  rebounds 0         5
#>  2    80010      2 Mentor, G        Geva      Mentor  rebounds 1         5
#>  3    80010      3 Mentor, G        Geva      Mentor  rebounds 3         5
#>  4    80010      4 Mentor, G        Geva      Mentor  rebounds 1         5
#>  5    80105      1 Langman, L       Laura     Langman rebounds 0         5
#>  6    80105      2 Langman, L       Laura     Langman rebounds 0         5
#>  7    80105      3 Langman, L       Laura     Langman rebounds 0         5
#>  8    80105      4 Langman, L       Laura     Langman rebounds 0         5
#>  9    80113      1 Bassett, C       Caitlin   Bassett rebounds 0         5
#> 10    80113      2 Bassett, C       Caitlin   Bassett rebounds 1         5
#> # ... with 2,630 more rows, and 1 more variable: game <int>

Season Data and Ladders

Provided with the superNetballR package is the full 2017 season match and player statistics in tidied format. These have been obtained using the previously described methods, tidied, and then combined by rows to produce a single data frame:

data(season_2017)
season_2017
#> # A tibble: 15,360 x 9
#>    period squadId squadName   squadNickname squadCode stat     value round
#>     <int>   <int> <chr>       <chr>         <chr>     <chr>    <int> <int>
#>  1      1     806 NSW Swifts  Swifts        NSW       rebounds     0     1
#>  2      2     806 NSW Swifts  Swifts        NSW       rebounds     1     1
#>  3      3     806 NSW Swifts  Swifts        NSW       rebounds     1     1
#>  4      4     806 NSW Swifts  Swifts        NSW       rebounds     0     1
#>  5      1    8118 GIANTS Net… GIANTS        GNB       rebounds     1     1
#>  6      2    8118 GIANTS Net… GIANTS        GNB       rebounds     2     1
#>  7      3    8118 GIANTS Net… GIANTS        GNB       rebounds     2     1
#>  8      4    8118 GIANTS Net… GIANTS        GNB       rebounds     1     1
#>  9      1     806 NSW Swifts  Swifts        NSW       goalsFr…     6     1
#> 10      2     806 NSW Swifts  Swifts        NSW       goalsFr…    13     1
#> # ... with 15,350 more rows, and 1 more variable: game <int>
…
